{
  "images" : [
    {
      "idiom" : "universal",
      "scale" : "1x",
      "filename" : "FacebookIconLoggedIn40.png"
    },
    {
      "idiom" : "universal",
      "scale" : "2x",
      "filename" : "FacebookIconLoggedIn80.png"
    },
    {
      "idiom" : "universal",
      "scale" : "3x",
      "filename" : "FacebookIconLoggedIn120.png"
    }
  ],
  "info" : {
    "version" : 1,
    "author" : "xcode"
  }
}